{
  "version": 1,
  "isRoot": true,
  "tools": {
    "dotnet-sonarscanner": {
      "version": "5.0.4",
      "commands": [
        "dotnet-sonarscanner"
      ]
    },
    "dotnet-reportgenerator-globaltool": {
      "version": "4.6.4",
      "commands": [
        "reportgenerator"
      ]
    }
  }
}
